%YAML 1.1
%TAG !u! tag:unity3d.com,2011:
--- !u!114 &-8977088393340583110
MonoBehaviour:
  m_ObjectHideFlags: 0
  m_CorrespondingSourceObject: {fileID: 0}
  m_PrefabInstance: {fileID: 0}
  m_PrefabAsset: {fileID: 0}
  m_GameObject: {fileID: 0}
  m_Enabled: 1
  m_EditorHideFlags: 0
  m_Script: {fileID: 11500000, guid: d2e7e46895ff88944864b6f317203edf, type: 3}
  m_Name: Tile Blend Shader
  m_EditorClassIdentifier: 
  _shader: {fileID: 4800000, guid: 5e4bf04c9bc2d784788f9cf6fbdb19de, type: 3}
--- !u!114 &11400000
MonoBehaviour:
  m_ObjectHideFlags: 0
  m_CorrespondingSourceObject: {fileID: 0}
  m_PrefabInstance: {fileID: 0}
  m_PrefabAsset: {fileID: 0}
  m_GameObject: {fileID: 0}
  m_Enabled: 1
  m_EditorHideFlags: 0
  m_Script: {fileID: 11500000, guid: 7e0610dab1204a0438fd3ce5072a8dc8, type: 3}
  m_Name: TileShaders
  m_EditorClassIdentifier: 
  data:
    id: 26580
    mKeys: 3d380000
    visibility: 0
    pIcons:
      maxSize: 2048
      mKeys: 3d380000
      mUvs:
      - serializedVersion: 2
        x: 0
        y: 0
        width: 1
        height: 1
      mTexture: {fileID: 3408343896556830264}
    mVals:
    - name: Tile Blend Shader
      pKey:
        mKey32: 1741961277
      iconTexture: {fileID: 0}
      mAsset: {fileID: -8977088393340583110}
      testInt: 0
--- !u!28 &3408343896556830264
Texture2D:
  m_ObjectHideFlags: 0
  m_CorrespondingSourceObject: {fileID: 0}
  m_PrefabInstance: {fileID: 0}
  m_PrefabAsset: {fileID: 0}
  m_Name: TileShaders_Icons
  m_ImageContentsHash:
    serializedVersion: 2
    Hash: 00000000000000000000000000000000
  m_ForcedFallbackFormat: 4
  m_DownscaleFallback: 0
  serializedVersion: 2
  m_Width: 4
  m_Height: 4
  m_CompleteImageSize: 64
  m_TextureFormat: 5
  m_MipCount: 1
  m_IsReadable: 1
  m_StreamingMipmaps: 0
  m_StreamingMipmapsPriority: 0
  m_AlphaIsTransparency: 0
  m_ImageCount: 1
  m_TextureDimension: 2
  m_TextureSettings:
    serializedVersion: 2
    m_FilterMode: 1
    m_Aniso: 1
    m_MipBias: 0
    m_WrapU: 0
    m_WrapV: 0
    m_WrapW: 0
  m_LightmapFormat: 0
  m_ColorSpace: 0
  image data: 64
  _typelessdata: cdcdcdcdcdcdcdcdcdcdcdcdcdcdcdcdcdcdcdcdcdcdcdcdcdcdcdcdcdcdcdcdcdcdcdcdcdcdcdcdcdcdcdcdcdcdcdcdcdcdcdcdcdcdcdcdcdcdcdcdcdcdcdcd
  m_StreamData:
    offset: 0
    size: 0
    path: 
